Manual
…
Se asume el paquete cargado y las dependencias disponibles. Los ejemplos exploran funcionalidades propias del paquete: grupos gr_*, exclusiones por patrón, control de la fila “Perú” y salida gt.

1) Tabla simple para una edición (tibble por defecto)

Se desea lo siguiente: obtener la tabla del puntaje General por región para la edición 2025, en formato tibble.

tab1 <- general_tabla(
  ediciones = 2025,
  regiones  = "ALL",
  gt        = FALSE
)
tab1

# A tibble: 25 × 2
   region       puntaje_2025
   <chr>               <dbl>
 1 Amazonas             4.31
 2 Apurímac             5.1 
 3 Arequipa             6.91
 4 Ayacucho             4.85
 5 Cajamarca            4.38
 6 Cusco                5.76
 7 Huancavelica         4.82
 8 Huánuco              4.37
 9 Ica                  6.37
10 Junín                5.22
# ℹ 15 more rows
…
